<?xml version="1.0" encoding="UTF-8" standalone="no"?>
<!-- Generator: Adobe Illustrator 13.0.2, SVG Export Plug-In . SVG Version: 6.00 Build 14948)  -->
<svg
    xmlns:rdf="http://www.w3.org/1999/02/22-rdf-syntax-ns#"
    xmlns="http://www.w3.org/2000/svg"
    xmlns:cc="http://web.resource.org/cc/"
    xmlns:xlink="http://www.w3.org/1999/xlink"
    xmlns:dc="http://purl.org/dc/elements/1.1/"
    xmlns:svg="http://www.w3.org/2000/svg"
    xmlns:inkscape="http://www.inkscape.org/namespaces/inkscape"
    xmlns:sodipodi="http://sodipodi.sourceforge.net/DTD/sodipodi-0.dtd"
    xmlns:ns1="http://sozi.baierouge.fr"
    id="Layer_1"
    style="enable-background:new -0.258 -0.548 123.547 123.539"
    xml:space="preserve"
    viewBox="-0.258 -0.548 123.547 123.539"
    version="1.1"
    y="0px"
    x="0px"
  >
<g
    >
	<path
        d="m109.65 123.4c8.148 0 14.766-6.617 14.766-14.766v-94.017c0-8.156-6.617-14.742-14.766-14.742h-94c-8.156 0-14.773 6.586-14.773 14.742v94.016c0 8.148 6.617 14.766 14.773 14.766h94z"
    />
	<path
        style="fill:#FFFFFF"
        d="m15.648 2.371c-6.766 0-12.273 5.492-12.273 12.242v94.016c0 6.773 5.508 12.273 12.273 12.273h94c6.758 0 12.281-5.5 12.281-12.273v-94.017c0-6.75-5.523-12.242-12.281-12.242h-94.002z"
    />
	<path
        d="m85.648 29.504c4.102 0 7.422-3.32 7.422-7.422 0-4.078-3.32-7.398-7.422-7.398-4.078 0-7.398 3.32-7.398 7.398 0 4.102 3.32 7.422 7.398 7.422z"
    />
	<path
        d="m91.164 31.168h-10.812l-18.438-18.438c-1.438-1.508-3.828-1.586-5.336-0.117-1.516 1.438-1.586 3.828-0.148 5.344l19.258 19.289v63.906c0 2.32 1.852 4.18 4.148 4.18 2.32 0 4.172-1.859 4.172-4.18v-34.654h3.375l0.023 34.656c0 2.32 1.875 4.18 4.172 4.18s4.148-1.859 4.148-4.18l-0.023-63.906 19.266-19.289c1.438-1.516 1.367-3.906-0.148-5.344-1.516-1.469-3.906-1.391-5.344 0.117l-18.316 18.44z"
    />
	<path
        d="m51.984 59.363c-1.125-1.148-2.656-1.828-4.367-1.828h-15.515c-1.711 0-3.25 0.68-4.344 1.828l-15.555 15.547c-1.438 1.516-1.391 3.906 0.125 5.344 1.508 1.445 3.93 1.398 5.344-0.117l12.062-12.055v16.102h-13.531c-2.484 0-4.492 2.008-4.492 4.5 0 1.289 0.492 2.438 1.367 3.266l15.234 15.234c1.344 1.977 3.984 2.617 6.086 1.391 2.219-1.266 2.953-4.078 1.68-6.273l-8.688-8.664 0.172 0.023h24.961l-8.719 8.664c-1.242 2.203-0.508 5.008 1.688 6.281 2.102 1.219 4.758 0.578 6.102-1.398l15.226-15.227c0.883-0.828 1.367-1.977 1.367-3.266 0-2.492-2-4.492-4.492-4.492h-13.492v-15.938l11.836 11.883c1.438 1.516 3.828 1.562 5.344 0.117 1.516-1.438 1.562-3.828 0.125-5.344l-15.524-15.57z"
    />
	<path
        d="m40.008 55.949c4.094 0 7.391-3.32 7.391-7.398 0-4.102-3.297-7.398-7.391-7.398-4.078 0-7.398 3.297-7.398 7.398-0.001 4.078 3.32 7.398 7.398 7.398z"
    />
</g
  >
<metadata
    ><rdf:RDF
      ><cc:Work
        ><dc:format
          >image/svg+xml</dc:format
        ><dc:type
            rdf:resource="http://purl.org/dc/dcmitype/StillImage"
        /><cc:license
            rdf:resource="http://creativecommons.org/licenses/publicdomain/"
        /><dc:publisher
          ><cc:Agent
              rdf:about="http://openclipart.org/"
            ><dc:title
              >Openclipart</dc:title
            ></cc:Agent
          ></dc:publisher
        ><dc:title
          >Land recreation symbols 11</dc:title
        ><dc:date
          >2006-12-26T00:00:00</dc:date
        ><dc:description
        /><dc:source
          >https://openclipart.org/detail/13797/-by--13797</dc:source
        ><dc:creator
          ><cc:Agent
            ><dc:title
              >johnny_automatic</dc:title
            ></cc:Agent
          ></dc:creator
        ></cc:Work
      ><cc:License
          rdf:about="http://creativecommons.org/licenses/publicdomain/"
        ><cc:permits
            rdf:resource="http://creativecommons.org/ns#Reproduction"
        /><cc:permits
            rdf:resource="http://creativecommons.org/ns#Distribution"
        /><cc:permits
            rdf:resource="http://creativecommons.org/ns#DerivativeWorks"
        /></cc:License
      ></rdf:RDF
    ></metadata
  ></svg
>
